............
----------------------------------------------------------------------
Ran 12 tests in 0.004s

OK
Name               Stmts   Miss Branch BrPart  Cover   Missing
--------------------------------------------------------------
Diplomacy.py          80      0     46      1    99%   115->118
TestDiplomacy.py      60      0      2      1    98%   88->exit
--------------------------------------------------------------
TOTAL                140      0     48      2    99%