......
----------------------------------------------------------------------
Ran 6 tests in 0.001s

OK

Name               Stmts   Miss Branch BrPart  Cover   Missing
--------------------------------------------------------------
Diplomacy.py          88      3     48      5    94%   97, 115-116, 23->35, 79->exit, 96->97, 111->117, 114->115
TestDiplomacy.py      39      0      0      0   100%
--------------------------------------------------------------
TOTAL                127      3     48      5    95%

