............
----------------------------------------------------------------------
Ran 12 tests in 0.002s

OK
Name               Stmts   Miss Branch BrPart  Cover   Missing
--------------------------------------------------------------
Army.py               15      0      0      0   100%
City.py                5      0      0      0   100%
Diplomacy.py          14      0      4      0   100%
Result.py             17      0      6      0   100%
TestDiplomacy.py      62      0      0      0   100%
War.py                40      0     12      0   100%
WarMap.py              8      0      2      0   100%
--------------------------------------------------------------
TOTAL                161      0     24      0   100%
